<svg width="18" height="18" viewBox="0 0 18 18" fill="none" xmlns="http://www.w3.org/2000/svg">
<g clip-path="url(#clip0_3_9643)">
<path d="M7.67417 7.67302C8.35452 6.99272 9.27032 6.59994 10.2321 6.57593C11.194 6.55192 12.1282 6.89851 12.8417 7.54402L12.9774 7.67302L15.0984 9.79477C15.7892 10.4868 16.1824 11.4212 16.1941 12.3989C16.2059 13.3766 15.8354 14.3202 15.1615 15.0287C14.4875 15.7371 13.5636 16.1543 12.5865 16.1914C11.6094 16.2284 10.6565 15.8824 9.93092 15.227L9.79592 15.098L8.20442 13.5065C8.06991 13.3715 7.99182 13.1904 7.986 13C7.98018 12.8095 8.04708 12.624 8.17311 12.4811C8.29913 12.3381 8.47484 12.2485 8.66453 12.2305C8.85422 12.2124 9.04368 12.2672 9.19442 12.3838L9.26492 12.446L10.8564 14.0375C11.269 14.4525 11.827 14.6904 12.412 14.7008C12.9971 14.7112 13.5632 14.4933 13.9902 14.0933C14.4173 13.6932 14.6717 13.1426 14.6995 12.5581C14.7273 11.9736 14.5263 11.4013 14.1392 10.9625L14.0379 10.8553L11.9169 8.73427C11.708 8.52529 11.4599 8.35953 11.1869 8.24643C10.9139 8.13333 10.6213 8.07512 10.3258 8.07512C10.0303 8.07512 9.73768 8.13333 9.46467 8.24643C9.19166 8.35953 8.94361 8.52529 8.73467 8.73427C8.59394 8.8749 8.40311 8.95386 8.20416 8.95379C8.0052 8.95372 7.81443 8.87462 7.6738 8.73389C7.53317 8.59316 7.4542 8.40233 7.45427 8.20338C7.45434 8.00442 7.53344 7.81365 7.67417 7.67302ZM2.90117 2.90002C3.58152 2.21972 4.49732 1.82694 5.45914 1.80293C6.42097 1.77892 7.35523 2.12551 8.06867 2.77102L8.20442 2.90002L9.79517 4.49227C9.92968 4.62723 10.0078 4.80834 10.0136 4.9988C10.0194 5.18927 9.95251 5.3748 9.82648 5.51772C9.70046 5.66065 9.52476 5.75024 9.33507 5.76832C9.14537 5.78639 8.95592 5.73157 8.80517 5.61502L8.73467 5.55277L7.14392 3.96202C6.73065 3.55143 6.17424 3.31715 5.59175 3.30845C5.00926 3.29974 4.4461 3.5173 4.02074 3.91536C3.59539 4.31341 3.341 4.86092 3.3111 5.44271C3.2812 6.0245 3.47812 6.5952 3.86042 7.03477L3.96167 7.14277L6.08342 9.26451C6.50536 9.68633 7.07755 9.92328 7.67417 9.92328C8.27079 9.92328 8.84298 9.68633 9.26492 9.26451C9.33455 9.19483 9.41723 9.13955 9.50823 9.10182C9.59923 9.06409 9.69677 9.04465 9.79528 9.04461C9.89379 9.04458 9.99135 9.06395 10.0824 9.10161C10.1734 9.13928 10.2561 9.19451 10.3258 9.26414C10.3955 9.33377 10.4508 9.41645 10.4885 9.50745C10.5262 9.59845 10.5457 9.69599 10.5457 9.7945C10.5457 9.89301 10.5264 9.99057 10.4887 10.0816C10.451 10.1726 10.3958 10.2553 10.3262 10.325C9.64582 11.0053 8.73002 11.3981 7.7682 11.4221C6.80637 11.4461 5.87212 11.0995 5.15867 10.454L5.02217 10.325L2.90117 8.20327C2.19816 7.50004 1.80322 6.54638 1.80322 5.55202C1.80322 4.55765 2.19816 3.60324 2.90117 2.90002Z" fill="#585C66"/>
</g>
<defs>
<clipPath id="clip0_3_9643">
<rect width="18" height="18" fill="white"/>
</clipPath>
</defs>
</svg>
